// Jest Snapshot v1, https://goo.gl/fbAQLP

exports[`AuthorizationDataStoreImpl DataStore Logging getLoginEnabled Should log verbose when elastic search call is made 1`] = `
Array [
  Array [
    Object {
      "level": "verbose",
      "message": "Initiating Elasticsearch call to get application membership details",
    },
    Object {
      "companyHash": "mockHash",
      "functionName": "AuthorizationDataStoreImpl.getLoginEnabledElastic",
      "search": Object {
        "body": Object {
          "query": Object {
            "bool": Object {
              "filter": Object {
                "bool": Object {
                  "must": Array [
                    Object {
                      "term": Object {
                        "siteHash.keyword": "mock",
                      },
                    },
                    Object {
                      "term": Object {
                        "applicationId": 6,
                      },
                    },
                    Object {
                      "term": Object {
                        "isActive": true,
                      },
                    },
                  ],
                },
              },
            },
          },
          "size": 0,
        },
        "index": "application_membership_devci",
      },
      "username": "mockUsername",
    },
  ],
  Array [
    Object {
      "level": "info",
      "message": "New elastic search client is created",
    },
    Object {
      "elasticServer": "https://api-internal-platform-dev01-pdx01.smartdrivesystems.com/devci-sd-es-appsearch-e1",
      "functionName": "ElasticsearchClientImpl.getClient()",
      "maxRetries": 3,
      "newAccessToken": "mock",
      "oldAccessToken": null,
      "requestTimeout": 60000,
    },
  ],
]
`;

exports[`AuthorizationDataStoreImpl DataStore Logging getLoginEnabled Should log when SQL configuration turned on 1`] = `
Array [
  Array [
    Object {
      "level": "info",
      "message": "Configuration is turned on to fall back to SQL",
    },
    Object {
      "functionName": "AuthorizationDataStoreImpl.getLoginEnabledElastic",
    },
  ],
]
`;

exports[`AuthorizationDataStoreImpl DataStore Logging getLoginEnabled Should log when last extract information is stale 1`] = `
Array [
  Array [
    Object {
      "level": "info",
      "message": "last refresh information not found or refresh time is greater than configured minutes. fall back to SQL will be attempted",
    },
    Object {
      "companyHash": "mockHash",
      "deltaRefreshTolerance": 240.2,
      "fullRefreshTolerance": 240.5,
      "functionName": "AuthorizationDataStoreImpl.getLoginEnabledElastic",
      "processExtractResponse": Array [
        Object {
          "index": "people_login_credentials_devci",
          "refreshTimeUnix": 949363200,
        },
        Object {
          "index": "application_membership_devci",
          "refreshTimeUnix": 949363200,
        },
      ],
      "username": "mockUsername",
    },
  ],
]
`;

exports[`AuthorizationDataStoreImpl DataStore Logging getPermissions Should log verbose when elastic search call is made 1`] = `
Array [
  Array [
    Object {
      "level": "info",
      "message": "New elastic search client is created",
    },
    Object {
      "elasticServer": "https://api-internal-platform-dev01-pdx01.smartdrivesystems.com/devci-sd-es-appsearch-e1",
      "functionName": "ElasticsearchClientImpl.getClient()",
      "maxRetries": 3,
      "newAccessToken": "mock",
      "oldAccessToken": null,
      "requestTimeout": 60000,
    },
  ],
  Array [
    Object {
      "level": "verbose",
      "message": "Initiating Elasticsearch call to get permissions",
    },
    Object {
      "companyHash": "mockHash",
      "functionName": "AuthorizationDataStoreImpl.getPermissionsElastic",
      "search": Object {
        "body": Object {
          "query": Object {
            "bool": Object {
              "filter": Object {
                "bool": Object {
                  "must": Array [
                    undefined,
                    Object {
                      "terms": Object {
                        "roleId": Array [
                          1,
                          2,
                          3,
                        ],
                      },
                    },
                  ],
                },
              },
              "minimum_should_match": 1,
              "should": Array [
                Object {
                  "term": Object {
                    "permissionScope.keyword": "global",
                  },
                },
                Object {
                  "bool": Object {
                    "must": Array [
                      Object {
                        "term": Object {
                          "permissionScope.keyword": "site",
                        },
                      },
                      Object {
                        "term": Object {
                          "privilegeEntityHash.keyword": "mock",
                        },
                      },
                    ],
                  },
                },
                Object {
                  "bool": Object {
                    "must": Array [
                      Object {
                        "term": Object {
                          "permissionScope.keyword": "company",
                        },
                      },
                      Object {
                        "term": Object {
                          "privilegeEntityHash.keyword": "mock",
                        },
                      },
                    ],
                  },
                },
                Object {
                  "bool": Object {
                    "must": Array [
                      Object {
                        "term": Object {
                          "permissionScope": "user",
                        },
                      },
                      Object {
                        "term": Object {
                          "privilegeEntityHash.keyword": "mock",
                        },
                      },
                    ],
                  },
                },
              ],
            },
          },
          "size": "100",
          "sort": Object {
            "auth_permissionId": "asc",
          },
        },
        "index": "role_permissions_devci",
      },
      "username": "mockUsername",
    },
  ],
  Array [
    Object {
      "level": "verbose",
      "message": "Received 1 of 1 permissions.",
    },
    Object {
      "companyHash": "mockHash",
      "functionName": "AuthorizationDataStoreImpl.getPermissionsElastic",
      "search": Object {
        "body": Object {
          "query": Object {
            "bool": Object {
              "filter": Object {
                "bool": Object {
                  "must": Array [
                    undefined,
                    Object {
                      "terms": Object {
                        "roleId": Array [
                          1,
                          2,
                          3,
                        ],
                      },
                    },
                  ],
                },
              },
              "minimum_should_match": 1,
              "should": Array [
                Object {
                  "term": Object {
                    "permissionScope.keyword": "global",
                  },
                },
                Object {
                  "bool": Object {
                    "must": Array [
                      Object {
                        "term": Object {
                          "permissionScope.keyword": "site",
                        },
                      },
                      Object {
                        "term": Object {
                          "privilegeEntityHash.keyword": "mock",
                        },
                      },
                    ],
                  },
                },
                Object {
                  "bool": Object {
                    "must": Array [
                      Object {
                        "term": Object {
                          "permissionScope.keyword": "company",
                        },
                      },
                      Object {
                        "term": Object {
                          "privilegeEntityHash.keyword": "mock",
                        },
                      },
                    ],
                  },
                },
                Object {
                  "bool": Object {
                    "must": Array [
                      Object {
                        "term": Object {
                          "permissionScope": "user",
                        },
                      },
                      Object {
                        "term": Object {
                          "privilegeEntityHash.keyword": "mock",
                        },
                      },
                    ],
                  },
                },
              ],
            },
          },
          "size": "100",
          "sort": Object {
            "auth_permissionId": "asc",
          },
        },
        "index": "role_permissions_devci",
      },
      "username": "mockUsername",
    },
  ],
]
`;

exports[`AuthorizationDataStoreImpl DataStore Logging getPermissions Should log when SQL configuration turned on 1`] = `
Array [
  Array [
    Object {
      "level": "info",
      "message": "Configuration is turned on to fall back to SQL",
    },
    Object {
      "functionName": "AuthorizationDataStoreImpl.getPermissionsElastic",
    },
  ],
]
`;

exports[`AuthorizationDataStoreImpl DataStore Logging getPermissions Should log when last extract information is stale 1`] = `
Array [
  Array [
    Object {
      "level": "info",
      "message": "last refresh information not found or refresh time is greater than configured minutes. fall back to SQL will be attempted",
    },
    Object {
      "deltaRefreshTolerance": 240.2,
      "functionName": "AuthorizationDataStoreImpl.getPermissionsElastic",
      "maxRetries": 3,
      "processExtractResponse": Array [
        Object {
          "index": "people_login_credentials_devci",
          "refreshTimeUnix": 949363200,
        },
        Object {
          "index": "role_permissions_devci",
          "refreshTimeUnix": 949363200,
        },
      ],
    },
  ],
]
`;
